<svg width="462" height="167" viewBox="0 0 462 167" fill="none" xmlns="http://www.w3.org/2000/svg">
<g clip-path="url(#clip0)">
<mask id="mask0" mask-type="alpha" maskUnits="userSpaceOnUse" x="15" y="-52" width="512" height="226">
<rect x="15" y="-52" width="512" height="226" rx="8" fill="#F3F8FC"/>
</mask>
<g mask="url(#mask0)">
<path d="M22.7042 164.531L101.411 139.407C106.39 137.818 109.601 132.453 108.584 127.423L97.5391 72.785C96.5223 67.7551 91.661 64.9652 86.6837 66.5557L7.97482 91.6779C2.99565 93.2666 -0.215117 98.6323 0.801717 103.662L11.8487 158.3C12.8656 163.332 17.725 166.12 22.7042 164.531Z" fill="#694B0F"/>
<path d="M19.8872 165.445C18.3269 165.445 16.822 165.044 15.4791 164.254C13.3551 163.005 11.9054 160.924 11.3933 158.394L0.348143 103.755C-0.712901 98.5087 2.64523 92.892 7.8344 91.2368L86.5432 66.1129C89.1111 65.2936 91.7269 65.5482 93.9079 66.8325C96.0319 68.0817 97.4816 70.163 97.9937 72.6928L109.041 127.33C110.102 132.576 106.744 138.193 101.554 139.848L22.8438 164.972L22.7038 164.531L22.8438 164.972C21.8564 165.288 20.8617 165.445 19.8872 165.445ZM89.4961 66.5686C88.6156 66.5686 87.7167 66.7107 86.8232 66.9949L8.11624 92.1207C3.36365 93.6374 0.285512 98.7744 1.25445 103.572L12.3015 158.21C12.7601 160.477 14.0551 162.341 15.9488 163.455C17.8996 164.603 20.2482 164.828 22.5638 164.09L101.273 138.966C106.025 137.449 109.103 132.312 108.134 127.515L97.0874 72.8773C96.6287 70.6096 95.3337 68.7459 93.44 67.6314C92.2408 66.9266 90.8943 66.5686 89.4961 66.5686Z" fill="black"/>
<path d="M122.624 73.2095H139.677V75.7724C140.592 72.0119 140.841 66.9322 140.841 60.0792C140.841 36.4977 137.901 0.869125 114.961 0.869125C92.0218 0.869125 73.4277 19.9852 73.4277 43.5666C73.4277 67.148 92.0218 86.2641 114.961 86.2641C117.815 86.2641 120.357 86.2235 122.624 86.1073V73.2095Z" fill="#A3750D"/>
<path d="M130.483 4.42661C124.244 0.575711 122.768 0.870941 114.962 0.870941C107.155 0.870941 99.851 3.08516 93.6118 6.9379L130.483 4.42661Z" fill="#D1961E"/>
<path d="M78.7366 22.6644C77.7916 24.3915 76.9608 26.1924 76.2534 28.056H153.667C152.96 26.1905 152.129 24.3896 151.184 22.6644H78.7366Z" fill="#D1961E"/>
<path d="M73.5567 40.1899C73.4719 41.3044 73.4277 42.4318 73.4277 43.5684C73.4277 44.4707 73.4554 45.3675 73.5088 46.2569H156.412C156.465 45.3675 156.493 44.4707 156.493 43.5684C156.493 42.4318 156.449 41.3044 156.364 40.1899H73.5567Z" fill="#D1961E"/>
<path d="M76.9756 60.8596C78.4824 64.3507 80.4295 67.5964 82.7487 70.521H147.172C149.489 67.5964 151.438 64.3507 152.945 60.8596H76.9756Z" fill="#D1961E"/>
<path d="M119.117 86.2641C142.056 86.2641 160.651 67.1478 160.651 43.5666C160.651 19.9854 142.056 0.869125 119.117 0.869125C96.1787 0.869125 77.5835 19.9854 77.5835 43.5666C77.5835 67.1478 96.1787 86.2641 119.117 86.2641Z" fill="#FFBE1D"/>
<path d="M119.117 0.870956C96.1794 0.870956 77.5835 19.987 77.5835 43.5685C77.5835 67.1499 96.1776 86.266 119.117 86.266C142.057 86.266 160.651 67.1499 160.651 43.5685C160.651 19.987 142.055 0.870956 119.117 0.870956Z" fill="#FFDE1F"/>
<path d="M119.117 86.7365C113.445 86.7365 107.943 85.5943 102.763 83.3413C100.274 82.2582 97.8722 80.9186 95.6267 79.3594C93.4033 77.815 91.3107 76.0418 89.4115 74.0877C87.5104 72.1337 85.7862 69.9841 84.2831 67.6997C82.767 65.3914 81.4647 62.9244 80.411 60.367C78.2226 55.0455 77.1118 49.3937 77.1118 43.5684C77.1118 37.7432 78.2226 32.0896 80.411 26.7699C81.4628 24.2125 82.7652 21.7455 84.2831 19.4372C85.7844 17.151 87.5104 15.0013 89.4115 13.0491C91.3125 11.0951 93.4033 9.32187 95.6267 7.77746C97.8722 6.21828 100.272 4.87868 102.763 3.79556C107.943 1.54259 113.445 0.400421 119.117 0.400421C124.789 0.400421 130.291 1.54259 135.471 3.79556C137.96 4.87868 140.362 6.21828 142.607 7.77746C144.831 9.32187 146.923 11.0951 148.823 13.0491C150.724 15.0032 152.448 17.1528 153.951 19.4372C155.467 21.7455 156.769 24.2125 157.823 26.7699C160.013 32.0914 161.122 37.7432 161.122 43.5684C161.122 49.3937 160.011 55.0473 157.823 60.367C156.771 62.9244 155.469 65.3914 153.951 67.6997C152.45 69.9859 150.724 72.1355 148.823 74.0877C146.922 76.0418 144.831 77.815 142.607 79.3594C140.362 80.9186 137.962 82.2582 135.471 83.3413C130.291 85.5943 124.789 86.7365 119.117 86.7365ZM119.117 1.34146C113.574 1.34146 108.199 2.4578 103.139 4.65726C100.705 5.71454 98.3603 7.02462 96.1646 8.54874C93.9909 10.0581 91.9443 11.7926 90.0875 13.7042C88.2288 15.6158 86.5415 17.7175 85.0715 19.9538C83.5886 22.2105 82.3139 24.624 81.2842 27.126C79.1418 32.3331 78.055 37.8631 78.055 43.5666C78.055 49.2682 79.1418 54.8001 81.2842 60.0072C82.3139 62.5092 83.5886 64.9227 85.0715 67.1794C86.5415 69.4157 88.2288 71.5174 90.0875 73.429C91.9462 75.3388 93.9909 77.0732 96.1646 78.5845C98.3603 80.1086 100.705 81.4187 103.139 82.4759C108.199 84.6772 113.576 85.7917 119.117 85.7917C124.66 85.7917 130.035 84.6754 135.095 82.4759C137.529 81.4187 139.874 80.1086 142.069 78.5845C144.243 77.0751 146.29 75.3406 148.146 73.429C150.005 71.5174 151.693 69.4157 153.163 67.1794C154.645 64.9227 155.92 62.5092 156.95 60.0072C159.092 54.8001 160.179 49.2701 160.179 43.5666C160.179 37.865 159.092 32.3331 156.95 27.126C155.92 24.624 154.645 22.2105 153.163 19.9538C151.693 17.7175 150.005 15.6158 148.146 13.7042C146.288 11.7944 144.243 10.0599 142.069 8.54874C139.874 7.02462 137.529 5.71454 135.095 4.65726C130.035 2.4578 124.66 1.34146 119.117 1.34146Z" fill="#1D1D1B"/>
<path opacity="0.59" d="M119.305 1.90239H118.295V4.4266H119.305V1.90239Z" fill="#FFBE1D"/>
<path opacity="0.59" d="M112.712 4.98198L111.717 5.16096L111.29 2.6755L112.285 2.49467L112.712 4.98198Z" fill="#FFBE1D"/>
<path opacity="0.59" d="M106.312 6.70168L105.364 7.05411L104.52 4.68121L105.469 4.32878L106.312 6.70168Z" fill="#FFBE1D"/>
<path opacity="0.59" d="M100.302 9.53221L99.4272 10.0489L98.1948 7.86232L99.0698 7.34567L100.302 9.53221Z" fill="#FFBE1D"/>
<path opacity="0.59" d="M94.8622 13.3886L94.0885 14.0529L92.5024 12.1191L93.278 11.4549L94.8622 13.3886Z" fill="#FFBE1D"/>
<path opacity="0.59" d="M90.1595 18.1529L89.5111 18.9463L87.6211 17.3226L88.2695 16.531L90.1595 18.1529Z" fill="#FFBE1D"/>
<path opacity="0.59" d="M86.3351 23.6829L85.8303 24.5778L83.6953 23.3157L84.2001 22.4208L86.3351 23.6829Z" fill="#FFBE1D"/>
<path opacity="0.59" d="M83.5094 29.8071L83.163 30.7795L80.8457 29.916L81.192 28.9435L83.5094 29.8071Z" fill="#FFBE1D"/>
<path opacity="0.59" d="M81.7629 36.3408L81.5861 37.3594L79.1582 36.9221L79.3332 35.9035L81.7629 36.3408Z" fill="#FFBE1D"/>
<path opacity="0.59" d="M78.6851 43.0869V44.1221H81.1516V43.0869H78.6851Z" fill="#FFBE1D"/>
<path opacity="0.59" d="M81.693 49.8384L81.868 50.8569L79.4401 51.2961L79.2651 50.2775L81.693 49.8384Z" fill="#FFBE1D"/>
<path opacity="0.59" d="M83.3731 56.3925L83.7175 57.363L81.4001 58.2266L81.0557 57.256L83.3731 56.3925Z" fill="#FFBE1D"/>
<path opacity="0.59" d="M86.1365 62.5461L86.6431 63.4429L84.5062 64.705L84.0015 63.8082L86.1365 62.5461Z" fill="#FFBE1D"/>
<path opacity="0.59" d="M89.9033 68.1167L90.5535 68.9083L88.6636 70.5321L88.0151 69.7386L89.9033 68.1167Z" fill="#FFBE1D"/>
<path opacity="0.59" d="M94.5564 72.9308L95.3301 73.5969L93.7459 75.5307L92.9722 74.8664L94.5564 72.9308Z" fill="#FFBE1D"/>
<path opacity="0.59" d="M99.9573 76.8463L100.832 77.3629L99.5981 79.5513L98.7231 79.0328L99.9573 76.8463Z" fill="#FFBE1D"/>
<path opacity="0.59" d="M105.938 79.7414L106.887 80.0956L106.043 82.4686L105.095 82.1143L105.938 79.7414Z" fill="#FFBE1D"/>
<path opacity="0.59" d="M112.319 81.5294L113.314 81.7083L112.887 84.1956L111.892 84.0167L112.319 81.5294Z" fill="#FFBE1D"/>
<path opacity="0.59" d="M118.908 84.6806H119.917V82.1564H118.908V84.6806Z" fill="#FFBE1D"/>
<path opacity="0.59" d="M125.501 81.5995L126.496 81.4205L126.925 83.9078L125.931 84.0868L125.501 81.5995Z" fill="#FFBE1D"/>
<path opacity="0.59" d="M131.901 79.8816L132.852 79.5273L133.696 81.9002L132.745 82.2545L131.901 79.8816Z" fill="#FFBE1D"/>
<path opacity="0.59" d="M137.912 77.0511L138.787 76.5326L140.021 78.7191L139.146 79.2376L137.912 77.0511Z" fill="#FFBE1D"/>
<path opacity="0.59" d="M143.352 73.1947L144.125 72.5286L145.711 74.4642L144.938 75.1284L143.352 73.1947Z" fill="#FFBE1D"/>
<path opacity="0.59" d="M148.054 68.4286L148.704 67.637L150.593 69.2589L149.944 70.0523L148.054 68.4286Z" fill="#FFBE1D"/>
<path opacity="0.59" d="M151.878 62.9004L152.383 62.0036L154.518 63.2657L154.013 64.1625L151.878 62.9004Z" fill="#FFBE1D"/>
<path opacity="0.59" d="M154.706 56.7744L155.051 55.8038L157.368 56.6674L157.023 57.6379L154.706 56.7744Z" fill="#FFBE1D"/>
<path opacity="0.59" d="M156.453 50.2406L156.628 49.2221L159.056 49.6612L158.881 50.6798L156.453 50.2406Z" fill="#FFBE1D"/>
<path opacity="0.59" d="M159.528 43.4967V42.4615H157.062V43.4967H159.528Z" fill="#FFBE1D"/>
<path opacity="0.59" d="M156.521 36.7431L156.346 35.7246L158.774 35.2854L158.95 36.304L156.521 36.7431Z" fill="#FFBE1D"/>
<path opacity="0.59" d="M154.842 30.1909L154.496 29.2185L156.813 28.3549L157.16 29.3273L154.842 30.1909Z" fill="#FFBE1D"/>
<path opacity="0.59" d="M152.077 24.0354L151.573 23.1404L153.708 21.8783L154.212 22.7732L152.077 24.0354Z" fill="#FFBE1D"/>
<path opacity="0.59" d="M148.311 18.4666L147.662 17.6732L149.55 16.0513L150.201 16.8428L148.311 18.4666Z" fill="#FFBE1D"/>
<path opacity="0.59" d="M143.657 13.6506L142.884 12.9864L144.468 11.0508L145.244 11.7169L143.657 13.6506Z" fill="#FFBE1D"/>
<path opacity="0.59" d="M138.258 9.73519L137.383 9.21854L138.616 7.032L139.491 7.54865L138.258 9.73519Z" fill="#FFBE1D"/>
<path opacity="0.59" d="M132.277 6.84011L131.326 6.48768L132.17 4.11478L133.119 4.46721L132.277 6.84011Z" fill="#FFBE1D"/>
<path opacity="0.59" d="M125.894 5.05212L124.899 4.87314L125.329 2.38583L126.323 2.56666L125.894 5.05212Z" fill="#FFBE1D"/>
<path d="M119.537 83.0738C140.761 83.0738 157.967 65.3858 157.967 43.5666C157.967 21.7474 140.761 4.0594 119.537 4.0594C98.313 4.0594 81.1074 21.7474 81.1074 43.5666C81.1074 65.3858 98.313 83.0738 119.537 83.0738Z" fill="#C99617"/>
<path d="M119.537 80.2931C139.268 80.2931 155.262 63.8501 155.262 43.5666C155.262 23.2831 139.268 6.84009 119.537 6.84009C99.8064 6.84009 83.8115 23.2831 83.8115 43.5666C83.8115 63.8501 99.8064 80.2931 119.537 80.2931Z" fill="#FFDE1F"/>
<path d="M102.662 50.0782L102.91 53.3424L111.15 51.9806L112.038 58.2893L98.1356 60.5404L95.728 36.2025L109.444 33.6524L110.12 39.581L101.965 40.7674L102.227 44.3286L108.619 42.8027L108.952 48.7626L102.662 50.0782Z" fill="black"/>
<path d="M124.653 30.4916L125.067 36.8944L120.91 37.627L123.166 56.2836L117.491 57.2099L115.481 38.2765L111.215 39.295L110.881 33.3351L124.653 30.4916Z" fill="black"/>
<path d="M133.154 43.9873L134.259 54.0952L128.583 55.0215L125.971 30.3736L131.512 29.1391L132.505 38.1602L136.886 37.2432L136.016 28.4269L141.653 27.1205L144.027 52.1504L138.459 53.108L137.453 42.9632L133.154 43.9873Z" fill="black"/>
<path d="M103.968 48.4711L104.216 51.7352L112.456 50.3734L113.344 56.6821L99.4418 58.9333L97.0342 34.5971L110.75 32.0471L111.426 37.9757L103.271 39.1621L103.533 42.7233L109.925 41.1974L110.259 47.1573L103.968 48.4711Z" fill="#C99617"/>
<path d="M125.959 28.8863L126.373 35.2891L122.216 36.0217L124.472 54.6783L118.797 55.6046L116.787 36.6693L112.521 37.6878L112.188 31.7279L125.959 28.8863Z" fill="#C99617"/>
<path d="M134.46 42.3801L135.565 52.4881L129.89 53.4143L127.276 28.7664L132.817 27.532L133.81 36.5531L138.19 35.636L137.321 26.8197L142.958 25.5133L145.332 50.5432L139.763 51.5009L138.758 41.3542L134.46 42.3801Z" fill="#C99617"/>
<path d="M169.966 132.279L187.486 134.671L187.129 137.304C188.595 133.569 189.559 128.384 190.516 121.343C193.812 97.1156 195.768 60.0957 172.201 56.8814C148.633 53.6652 126.858 70.7 123.562 94.9272C120.267 119.154 136.702 141.402 160.269 144.618C163.2 145.018 165.82 145.334 168.165 145.531L169.966 132.279Z" fill="#A3750D"/>
<path d="M187.65 62.7103C181.777 57.8778 180.221 57.9756 172.2 56.8796C164.178 55.7854 156.366 57.0364 149.417 60.1197L187.65 62.7103Z" fill="#D1961E"/>
<path d="M131.938 74.1947C130.726 75.837 129.621 77.5696 128.633 79.3871L208.171 90.2386C207.705 88.2237 207.103 86.2567 206.373 84.3506L131.938 74.1947Z" fill="#D1961E"/>
<path d="M124.164 91.4749C123.921 92.6078 123.719 93.7592 123.56 94.9272C123.435 95.8554 123.337 96.7798 123.269 97.7005L208.447 109.321C208.626 108.415 208.781 107.498 208.906 106.57C209.064 105.402 209.177 104.238 209.247 103.081L124.164 91.4749Z" fill="#D1961E"/>
<path d="M124.791 113.193C125.85 116.992 127.399 120.599 129.372 123.928L195.564 132.96C198.354 130.281 200.808 127.22 202.844 123.843L124.791 113.193Z" fill="#D1961E"/>
<path d="M213.189 107.151C216.484 82.9224 200.05 60.6735 176.482 57.4572C152.913 54.2409 131.136 71.275 127.84 95.5039C124.545 119.733 140.979 141.982 164.548 145.198C188.116 148.414 209.894 131.38 213.189 107.151Z" fill="#FFBE1D"/>
<path d="M176.471 57.4645C152.903 54.2483 131.126 71.2812 127.832 95.5103C124.539 119.739 140.972 141.985 164.539 145.201C188.107 148.417 209.883 131.382 213.178 107.155C216.473 82.928 200.038 60.6788 176.471 57.4645Z" fill="#FFDE1F"/>
<path d="M164.473 145.686C158.646 144.891 153.151 142.946 148.145 139.905C145.739 138.444 143.458 136.732 141.369 134.814C139.301 132.916 137.4 130.799 135.72 128.526C134.04 126.253 132.568 123.802 131.345 121.243C130.109 118.66 129.116 115.942 128.392 113.167C126.885 107.393 126.535 101.43 127.349 95.4438C128.163 89.4581 130.094 83.8063 133.086 78.6453C134.524 76.1654 136.208 73.8128 138.087 71.6539C139.949 69.5154 142.022 67.5484 144.249 65.8084C146.474 64.0684 148.87 62.5387 151.372 61.2637C153.897 59.9758 156.552 58.9369 159.26 58.173C164.897 56.5843 170.71 56.1839 176.537 56.9774C182.365 57.7726 187.858 59.7174 192.865 62.7583C195.271 64.2197 197.551 65.932 199.64 67.8492C201.709 69.7479 203.61 71.8643 205.29 74.1375C206.97 76.4108 208.442 78.8612 209.665 81.4205C210.901 84.0037 211.894 86.7217 212.618 89.4968C214.125 95.2704 214.475 101.234 213.66 107.22C212.846 113.206 210.916 118.857 207.924 124.018C206.485 126.498 204.802 128.851 202.923 131.01C201.061 133.148 198.988 135.115 196.761 136.855C194.536 138.595 192.139 140.125 189.638 141.4C187.112 142.688 184.458 143.727 181.75 144.491C176.113 146.079 170.301 146.48 164.473 145.686ZM176.404 57.9479C170.71 57.1711 165.031 57.5641 159.523 59.1159C156.876 59.8614 154.282 60.8781 151.814 62.1365C149.37 63.3838 147.025 64.8784 144.849 66.5815C142.672 68.2846 140.645 70.2073 138.824 72.2997C136.983 74.4106 135.338 76.7116 133.931 79.138C131.002 84.1864 129.114 89.7182 128.316 95.5767C127.521 101.435 127.863 107.27 129.337 112.92C130.044 115.636 131.017 118.293 132.225 120.821C133.423 123.325 134.863 125.721 136.504 127.945C138.148 130.168 140.006 132.237 142.029 134.093C144.072 135.968 146.299 137.641 148.651 139.069C153.544 142.04 158.912 143.941 164.606 144.718C170.299 145.494 175.979 145.101 181.486 143.55C184.134 142.804 186.727 141.787 189.196 140.529C191.64 139.282 193.985 137.787 196.161 136.084C198.338 134.381 200.364 132.458 202.186 130.366C204.026 128.255 205.671 125.954 207.079 123.527C210.008 118.479 211.896 112.947 212.693 107.089C213.489 101.23 213.146 95.3959 211.673 89.7459C210.965 87.0298 209.993 84.3728 208.784 81.8449C207.587 79.3409 206.147 76.9441 204.505 74.7206C202.862 72.4972 201.003 70.4287 198.981 68.5725C196.938 66.6978 194.711 65.0242 192.358 63.596C187.466 60.6253 182.098 58.7247 176.404 57.9479Z" fill="#1D1D1B"/>
<path opacity="0.59" d="M176.527 58.5582L175.488 58.4164L175.135 61.0109L176.174 61.1527L176.527 58.5582Z" fill="#FFBE1D"/>
<path opacity="0.59" d="M169.315 60.7895L168.267 60.8356L168.175 58.221L169.222 58.1749L169.315 60.7895Z" fill="#FFBE1D"/>
<path opacity="0.59" d="M162.5 61.6586L161.474 61.8892L160.939 59.3337L161.964 59.103L162.5 61.6586Z" fill="#FFBE1D"/>
<path opacity="0.59" d="M155.927 63.7252L154.957 64.133L153.995 61.7139L154.966 61.3062L155.927 63.7252Z" fill="#FFBE1D"/>
<path opacity="0.59" d="M149.801 66.9247L148.913 67.5004L147.553 65.2899L148.441 64.7161L149.801 66.9247Z" fill="#FFBE1D"/>
<path opacity="0.59" d="M144.302 71.1613L143.525 71.8846L141.812 69.9527L142.589 69.2294L144.302 71.1613Z" fill="#FFBE1D"/>
<path opacity="0.59" d="M139.603 76.3056L138.958 77.1563L136.939 75.5602L137.584 74.7096L139.603 76.3056Z" fill="#FFBE1D"/>
<path opacity="0.59" d="M135.841 82.2028L135.349 83.1531L133.089 81.9408L133.581 80.9906L135.841 82.2028Z" fill="#FFBE1D"/>
<path opacity="0.59" d="M133.133 88.6721L132.811 89.6943L130.377 88.9027L130.7 87.8805L133.133 88.6721Z" fill="#FFBE1D"/>
<path opacity="0.59" d="M129.04 95.1688L128.895 96.2311L131.429 96.5769L131.573 95.5146L129.04 95.1688Z" fill="#FFBE1D"/>
<path opacity="0.59" d="M131.177 102.529L131.216 103.601L128.659 103.71L128.62 102.64L131.177 102.529Z" fill="#FFBE1D"/>
<path opacity="0.59" d="M131.987 109.499L132.207 110.545L129.705 111.108L129.486 110.06L131.987 109.499Z" fill="#FFBE1D"/>
<path opacity="0.59" d="M133.967 116.21L134.362 117.2L131.991 118.199L131.597 117.206L133.967 116.21Z" fill="#FFBE1D"/>
<path opacity="0.59" d="M137.059 122.459L137.615 123.365L135.447 124.767L134.891 123.862L137.059 122.459Z" fill="#FFBE1D"/>
<path opacity="0.59" d="M141.166 128.059L141.87 128.851L139.971 130.617L139.269 129.825L141.166 128.059Z" fill="#FFBE1D"/>
<path opacity="0.59" d="M146.168 132.838L146.995 133.493L145.422 135.567L144.597 134.912L146.168 132.838Z" fill="#FFBE1D"/>
<path opacity="0.59" d="M151.91 136.652L152.836 137.149L151.637 139.468L150.712 138.972L151.91 136.652Z" fill="#FFBE1D"/>
<path opacity="0.59" d="M158.217 139.383L159.214 139.708L158.427 142.203L157.429 141.878L158.217 139.383Z" fill="#FFBE1D"/>
<path opacity="0.59" d="M164.54 143.531L165.579 143.673L165.932 141.078L164.893 140.937L164.54 143.531Z" fill="#FFBE1D"/>
<path opacity="0.59" d="M171.751 141.304L172.797 141.26L172.891 143.874L171.843 143.919L171.751 141.304Z" fill="#FFBE1D"/>
<path opacity="0.59" d="M178.566 140.435L179.591 140.204L180.125 142.76L179.101 142.991L178.566 140.435Z" fill="#FFBE1D"/>
<path opacity="0.59" d="M185.137 138.368L186.108 137.961L187.07 140.38L186.099 140.789L185.137 138.368Z" fill="#FFBE1D"/>
<path opacity="0.59" d="M191.266 135.169L192.154 134.595L193.512 136.804L192.624 137.379L191.266 135.169Z" fill="#FFBE1D"/>
<path opacity="0.59" d="M196.763 130.932L197.54 130.209L199.255 132.143L198.478 132.864L196.763 130.932Z" fill="#FFBE1D"/>
<path opacity="0.59" d="M201.464 125.788L202.109 124.939L204.126 126.535L203.481 127.384L201.464 125.788Z" fill="#FFBE1D"/>
<path opacity="0.59" d="M205.226 119.891L205.716 118.94L207.976 120.153L207.486 121.103L205.226 119.891Z" fill="#FFBE1D"/>
<path opacity="0.59" d="M207.931 113.423L208.254 112.401L210.687 113.191L210.365 114.213L207.931 113.423Z" fill="#FFBE1D"/>
<path opacity="0.59" d="M212.023 106.93L212.167 105.868L209.633 105.522L209.489 106.584L212.023 106.93Z" fill="#FFBE1D"/>
<path opacity="0.59" d="M209.887 99.5642L209.851 98.4939L212.406 98.3832L212.444 99.4553L209.887 99.5642Z" fill="#FFBE1D"/>
<path opacity="0.59" d="M209.079 92.5968L208.86 91.5487L211.361 90.9877L211.581 92.034L209.079 92.5968Z" fill="#FFBE1D"/>
<path opacity="0.59" d="M207.099 85.8858L206.705 84.8931L209.075 83.8967L209.47 84.8876L207.099 85.8858Z" fill="#FFBE1D"/>
<path opacity="0.59" d="M204.006 79.6343L203.449 78.7302L205.617 77.326L206.174 78.232L204.006 79.6343Z" fill="#FFBE1D"/>
<path opacity="0.59" d="M199.898 74.0342L199.196 73.2426L201.096 71.4786L201.797 72.2702L199.898 74.0342Z" fill="#FFBE1D"/>
<path opacity="0.59" d="M194.896 69.2552L194.069 68.602L195.642 66.528L196.47 67.1812L194.896 69.2552Z" fill="#FFBE1D"/>
<path opacity="0.59" d="M189.155 65.4431L188.23 64.9449L189.427 62.6255L190.354 63.1218L189.155 65.4431Z" fill="#FFBE1D"/>
<path opacity="0.59" d="M182.849 62.7103L181.851 62.3874L182.639 59.8928L183.636 60.2157L182.849 62.7103Z" fill="#FFBE1D"/>
<path d="M210.433 106.776C213.483 84.3562 198.275 63.769 176.467 60.7929C154.659 57.8168 134.508 73.5786 131.459 95.998C128.409 118.417 143.617 139.005 165.425 141.981C187.233 144.957 207.384 129.195 210.433 106.776Z" fill="#C99617"/>
<path d="M207.654 106.396C210.488 85.5551 196.352 66.4173 176.079 63.6507C155.806 60.8841 137.074 75.5363 134.239 96.3774C131.404 117.219 145.541 136.356 165.814 139.123C186.087 141.89 204.819 127.237 207.654 106.396Z" fill="#FFDE1F"/>
<path d="M167.372 87.2255L170.165 92.63L164.611 107.24L158.613 111.167L144.801 107.522L154.181 83.5572L167.372 87.2255ZM158.031 91.0118L153.262 103.064L159.138 104.603L163.482 92.3329L158.031 91.0118Z" fill="black"/>
<path d="M169.655 112.032L168.238 114.534L162.226 112.768L175.478 89.4175L183.22 91.9712L180.098 117.754L173.884 116.191L174.273 113.554L169.655 112.032ZM175.043 108.207L176.15 100.618L172.265 107.447L175.043 108.207Z" fill="black"/>
<path d="M189.999 94.0747L196.174 95.6819L186.562 119.933L180.619 118.038L189.999 94.0747Z" fill="black"/>
<path d="M168.907 86.0556L171.699 91.4601L166.145 106.07L160.147 109.997L146.335 106.353L155.715 82.3874L168.907 86.0556ZM159.565 89.8437L154.798 101.896L160.674 103.435L165.018 91.1649L159.565 89.8437Z" fill="#C99617"/>
<path d="M171.189 110.864L169.772 113.366L163.76 111.6L177.012 88.2495L184.754 90.8032L181.632 116.586L175.418 115.023L175.807 112.386L171.189 110.864ZM176.579 107.039L177.686 99.4497L173.801 106.279L176.579 107.039Z" fill="#C99617"/>
<path d="M191.533 92.9067L197.708 94.5139L188.096 118.765L182.153 116.87L191.533 92.9067Z" fill="#C99617"/>
<path d="M20.1267 167C18.4633 167 16.8348 166.511 15.4183 165.568C13.5172 164.304 12.2204 162.372 11.7673 160.132L0.169452 102.642C-0.764488 98.016 2.23444 93.4898 6.85256 92.5561L100.363 73.6301C104.981 72.6965 109.498 75.6986 110.431 80.3244L122.029 137.817C122.963 142.442 119.964 146.969 115.346 147.902L21.8361 166.828L21.744 166.374L21.8361 166.828C21.2669 166.943 20.694 167 20.1267 167ZM102.059 74.3848C101.56 74.3848 101.055 74.4346 100.547 74.5361L7.03677 93.464C2.91785 94.298 0.243136 98.3334 1.07576 102.459L12.6736 159.95C13.077 161.948 14.232 163.669 15.9285 164.797C17.6251 165.924 19.6569 166.323 21.6519 165.919L115.162 146.993C119.281 146.159 121.956 142.123 121.123 137.997L109.525 80.5053C108.798 76.8906 105.609 74.3848 102.059 74.3848Z" fill="black"/>
<path d="M102.059 74.3848C101.56 74.3848 101.055 74.4346 100.547 74.5361L7.03673 93.464C2.91781 94.298 0.243093 98.3334 1.07572 102.459L12.6735 159.95C13.0769 161.948 14.2319 163.669 15.9285 164.797C17.6251 165.924 19.6569 166.323 21.6519 165.919L115.162 146.993C119.281 146.159 121.956 142.123 121.123 137.997L109.525 80.5053C108.798 76.8906 105.609 74.3848 102.059 74.3848Z" fill="#D1961E"/>
<path d="M10.7949 97.778L10.6899 97.2595L13.7589 96.6377L13.8639 97.1562L10.7949 97.778ZM16.9328 96.5362L16.8278 96.0177L19.8949 95.3959L19.9999 95.9144L16.9328 96.5362ZM23.0688 95.2944L22.9638 94.7759L26.0327 94.1559L26.1377 94.6744L23.0688 95.2944ZM29.2048 94.0526L29.0998 93.5341L32.1687 92.9123L32.2737 93.4308L29.2048 94.0526ZM35.3408 92.8108L35.2358 92.2923L38.3047 91.6705L38.4097 92.189L35.3408 92.8108ZM41.4768 91.569L41.3718 91.0505L44.4407 90.4287L44.5457 90.9472L41.4768 91.569ZM47.6128 90.3272L47.5078 89.8087L50.5767 89.1887L50.6817 89.7072L47.6128 90.3272ZM53.7488 89.0854L53.6438 88.5669L56.7127 87.945L56.8177 88.4635L53.7488 89.0854ZM59.8848 87.8436L59.7798 87.3251L62.8488 86.7032L62.9538 87.2217L59.8848 87.8436ZM66.0208 86.5999L65.9158 86.0814L68.9848 85.4614L69.0898 85.9799L66.0208 86.5999ZM72.1568 85.3581L72.0518 84.8396L75.1208 84.2178L75.2258 84.7363L72.1568 85.3581ZM78.2928 84.1163L78.1878 83.5978L81.2568 82.976L81.3618 83.4945L78.2928 84.1163ZM84.4288 82.8745L84.3239 82.356L87.3928 81.7342L87.4978 82.2527L84.4288 82.8745ZM90.5649 81.6327L90.4599 81.1142L93.5288 80.4942L93.6338 81.0127L90.5649 81.6327ZM96.7009 80.3909L96.5959 79.8724L99.6648 79.2505L99.7698 79.769L96.7009 80.3909Z" fill="black"/>
<path d="M104.395 80.1842L104.133 78.887L102.838 79.1491L102.733 78.6306L104.546 78.2634L104.913 80.079L104.395 80.1842Z" fill="black"/>
<path d="M115.751 136.49L115.12 133.362L115.637 133.257L116.269 136.385L115.751 136.49ZM114.49 130.233L113.858 127.105L114.375 127L115.007 130.128L114.49 130.233ZM113.228 123.978L112.596 120.85L113.114 120.745L113.745 123.873L113.228 123.978ZM111.966 117.721L111.334 114.593L111.852 114.488L112.484 117.616L111.966 117.721ZM110.704 111.466L110.072 108.338L110.59 108.233L111.222 111.36L110.704 111.466ZM109.442 105.209L108.81 102.081L109.328 101.976L109.96 105.103L109.442 105.209ZM108.18 98.9534L107.549 95.8258L108.066 95.7206L108.698 98.8482L108.18 98.9534ZM106.919 92.6964L106.287 89.5688L106.804 89.4636L107.436 92.5912L106.919 92.6964ZM105.657 86.4412L105.025 83.3136L105.543 83.2085L106.174 86.336L105.657 86.4412Z" fill="black"/>
<path d="M115.455 141.695L115.35 141.177L116.645 140.915L116.384 139.617L116.901 139.512L117.268 141.328L115.455 141.695Z" fill="black"/>
<path d="M25.6641 159.868L25.5591 159.35L28.7662 158.7L28.8712 159.219L25.6641 159.868ZM32.0764 158.571L31.9714 158.053L35.1785 157.403L35.2835 157.922L32.0764 158.571ZM38.4906 157.272L38.3856 156.754L41.5926 156.104L41.6976 156.623L38.4906 157.272ZM44.9047 155.975L44.7997 155.457L48.0068 154.807L48.1118 155.326L44.9047 155.975ZM51.317 154.676L51.212 154.158L54.4191 153.508L54.5241 154.027L51.317 154.676ZM57.7312 153.379L57.6262 152.86L60.8333 152.211L60.9383 152.729L57.7312 153.379ZM64.1454 152.08L64.0404 151.561L67.2474 150.912L67.3524 151.43L64.1454 152.08ZM70.5595 150.783L70.4545 150.264L73.6616 149.615L73.7666 150.133L70.5595 150.783ZM76.9718 149.484L76.8668 148.965L80.0739 148.316L80.1789 148.834L76.9718 149.484ZM83.386 148.187L83.281 147.668L86.4881 147.019L86.5931 147.537L83.386 148.187ZM89.8001 146.888L89.6952 146.369L92.9022 145.72L93.0072 146.238L89.8001 146.888ZM96.2143 145.59L96.1093 145.072L99.3164 144.422L99.4214 144.941L96.2143 145.59ZM102.627 144.291L102.522 143.773L105.729 143.123L105.834 143.642L102.627 144.291ZM109.041 142.994L108.936 142.476L112.143 141.826L112.248 142.345L109.041 142.994Z" fill="black"/>
<path d="M22.3548 159.99L20.8003 160.305L20.9051 160.825L22.4596 160.509L22.3548 159.99Z" fill="black"/>
<path d="M96.6822 122.166C94.2598 122.166 92.0843 120.457 91.587 117.988L90.3362 111.79C90.0617 110.432 90.3362 109.043 91.1062 107.88C91.8762 106.718 93.0478 105.926 94.4035 105.651L111.728 102.146C113.086 101.871 114.471 102.146 115.632 102.917C116.792 103.688 117.583 104.862 117.857 106.22L119.108 112.418C119.675 115.233 117.851 117.986 115.04 118.555L97.7156 122.061C97.3675 122.131 97.0211 122.166 96.6822 122.166ZM112.76 102.572C112.452 102.572 112.143 102.603 111.833 102.666L94.5085 106.172C93.2909 106.419 92.2391 107.129 91.5465 108.174C90.8538 109.218 90.6088 110.465 90.8538 111.685L92.1046 117.883C92.6149 120.413 95.0851 122.055 97.6088 121.544L114.934 118.038C117.459 117.527 119.099 115.053 118.588 112.525L117.338 106.327C117.091 105.107 116.382 104.053 115.339 103.36C114.56 102.839 113.668 102.572 112.76 102.572Z" fill="black"/>
<path d="M112.76 102.572C112.452 102.572 112.143 102.603 111.833 102.666L94.5085 106.172C93.2909 106.419 92.239 107.129 91.5464 108.174C90.8538 109.218 90.6088 110.465 90.8538 111.685L92.1046 117.883C92.6148 120.413 95.0851 122.055 97.6087 121.544L114.934 118.038C117.459 117.527 119.099 115.053 118.588 112.525L117.338 106.327C117.091 105.107 116.381 104.053 115.339 103.36C114.56 102.839 113.668 102.572 112.76 102.572Z" fill="#A3750D"/>
<path d="M99.331 117.787C101.993 117.787 104.152 115.625 104.152 112.958C104.152 110.291 101.993 108.129 99.331 108.129C96.6686 108.129 94.5103 110.291 94.5103 112.958C94.5103 115.625 96.6686 117.787 99.331 117.787Z" fill="#FFDE1F"/>
<path d="M99.3217 117.855C98.3712 117.855 97.4391 117.577 96.6286 117.036C95.5417 116.313 94.7994 115.209 94.5415 113.927C94.2836 112.645 94.5378 111.34 95.2599 110.25C95.982 109.161 97.0836 108.417 98.3638 108.159C101.004 107.624 103.588 109.342 104.122 111.988C104.656 114.634 102.941 117.221 100.3 117.756C99.9738 117.822 99.6459 117.855 99.3217 117.855ZM99.342 108.194C99.0251 108.194 98.7083 108.225 98.3896 108.29C97.1444 108.543 96.0723 109.264 95.3704 110.323C94.6686 111.383 94.4199 112.654 94.6723 113.901C94.9246 115.149 95.6449 116.222 96.7023 116.925C97.7596 117.628 99.0288 117.878 100.274 117.627C102.844 117.106 104.513 114.589 103.993 112.015C103.741 110.768 103.021 109.694 101.961 108.991C101.173 108.467 100.267 108.194 99.342 108.194Z" fill="black"/>
<path d="M411.123 156.003C397.867 156.003 385.395 154.458 376.007 151.652C366.381 148.775 361.077 144.849 361.077 140.595C361.077 140.455 361.085 140.309 361.097 140.16V57.9683H461.171V141.511H461.086C460.371 145.454 455.037 149.067 445.938 151.74C436.584 154.49 424.222 156.003 411.123 156.003Z" fill="#FFDE1F"/>
<path d="M460.526 58.6141V140.865H460.515C460.032 148.893 438.106 155.357 411.125 155.357C383.842 155.357 361.724 148.748 361.724 140.595C361.724 140.459 361.731 140.324 361.744 140.188V58.6141H460.526ZM461.816 57.3224H460.526H361.742H360.453V58.6141V140.132C360.44 140.293 360.433 140.444 360.433 140.595C360.433 143.033 361.923 145.321 364.861 147.397C367.464 149.235 371.152 150.875 375.823 152.272C385.269 155.095 397.807 156.649 411.123 156.649C424.281 156.649 436.708 155.126 446.119 152.36C450.769 150.995 454.468 149.388 457.113 147.583C459.57 145.908 461.075 144.087 461.6 142.157H461.814V140.865V58.6141V57.3224H461.816Z" fill="black"/>
<path opacity="0.59" d="M362.452 143.134C365.353 148.137 376.674 152.275 391.897 154.198V58.6141H362.452V143.134Z" fill="#FFBE1D"/>
<path opacity="0.59" d="M395.549 154.608C397.984 154.849 400.506 155.036 403.092 155.161V61.5405H395.549V154.608Z" fill="#FFBE1D"/>
<path d="M411.124 73.7002C397.859 73.7002 385.379 72.154 375.98 69.3456C366.309 66.4561 360.984 62.4981 360.984 58.2007C360.984 53.9033 366.309 49.9454 375.98 47.0558C385.377 44.2475 397.859 42.7012 411.124 42.7012C424.389 42.7012 436.869 44.2475 446.267 47.0558C455.938 49.9454 461.263 53.9033 461.263 58.2007C461.263 62.4981 455.938 66.4561 446.267 69.3456C436.871 72.154 424.389 73.7002 411.124 73.7002Z" fill="#EFAC14"/>
<path d="M411.123 43.4393C438.407 43.4393 460.525 50.0487 460.525 58.2007C460.525 66.3528 438.407 72.9622 411.123 72.9622C383.84 72.9622 361.722 66.3528 361.722 58.2007C361.722 50.0487 383.84 43.4393 411.123 43.4393ZM411.123 41.9631C397.789 41.9631 385.233 43.5205 375.77 46.3491C371.08 47.7515 367.374 49.3992 364.754 51.2499C361.765 53.3627 360.249 55.7024 360.249 58.2026C360.249 60.7028 361.765 63.0425 364.754 65.1552C367.374 67.006 371.08 68.6537 375.77 70.056C385.233 72.8847 397.789 74.442 411.123 74.442C424.458 74.442 437.014 72.8847 446.477 70.056C451.167 68.6537 454.873 67.006 457.493 65.1552C460.482 63.0425 461.998 60.7028 461.998 58.2026C461.998 55.7024 460.482 53.3627 457.493 51.2499C454.873 49.3992 451.167 47.7515 446.477 46.3491C437.014 43.5205 424.458 41.9631 411.123 41.9631Z" fill="black"/>
<path d="M432.057 71.5746C442.321 70.1372 450.658 67.6776 455.6 64.633L416.815 43.5371C414.947 43.4725 413.05 43.4393 411.125 43.4393C401.355 43.4393 392.245 44.2881 384.579 45.7495L432.057 71.5746Z" fill="#C99617"/>
<path d="M187.586 40.6401L186.626 39.7784C187.12 39.2267 187.623 38.675 188.122 38.1344L189.067 39.0127C188.573 39.5459 188.074 40.094 187.586 40.6401Z" fill="black"/>
<path d="M192.168 35.7725L191.253 34.8629C192.314 33.7908 193.406 32.728 194.495 31.7021L195.377 32.6431C194.3 33.6598 193.22 34.7116 192.168 35.7725ZM359.487 32.2722C358.281 31.3902 357.052 30.5119 355.835 29.6631L356.571 28.6022C357.798 29.4565 359.034 30.3403 360.248 31.2278L359.487 32.2722ZM198.695 29.6318L197.846 28.6594C198.979 27.6667 200.143 26.6832 201.305 25.7384L202.118 26.7404C200.968 27.6759 199.817 28.6483 198.695 29.6318ZM352.121 27.1408C350.87 26.3123 349.601 25.493 348.35 24.707L349.035 23.6128C350.295 24.4044 351.574 25.2292 352.834 26.0632L352.121 27.1408ZM205.647 23.9781L204.872 22.9467C206.078 22.037 207.314 21.1421 208.543 20.2878L209.278 21.3487C208.062 22.1938 206.841 23.0795 205.647 23.9781ZM344.52 22.3691C343.235 21.6052 341.927 20.8505 340.634 20.1272L341.264 18.9998C342.566 19.7287 343.883 20.4889 345.178 21.2583L344.52 22.3691ZM213.006 18.8596L212.312 17.7709C213.579 16.9591 214.88 16.1638 216.176 15.4036L216.829 16.5181C215.545 17.269 214.261 18.0569 213.006 18.8596ZM336.692 17.985C335.369 17.2893 334.024 16.6048 332.694 15.9516L333.262 14.7928C334.603 15.4515 335.957 16.1416 337.29 16.8428L336.692 17.985ZM220.736 14.3297L220.13 13.1894C221.458 12.4808 222.817 11.7889 224.167 11.1357L224.727 12.2981C223.392 12.9458 222.049 13.6285 220.736 14.3297ZM328.642 14.0289C327.284 13.4071 325.904 12.8 324.537 12.2206L325.038 11.0305C326.415 11.6136 327.807 12.2262 329.176 12.8535L328.642 14.0289ZM320.383 10.5341C318.991 9.99166 317.576 9.46762 316.182 8.97311L316.613 7.7553C318.02 8.25349 319.446 8.78491 320.851 9.33108L320.383 10.5341ZM228.798 10.4308L228.284 9.2462C229.664 8.64652 231.073 8.06713 232.473 7.52465L232.938 8.72955C231.554 9.2665 230.162 9.8385 228.798 10.4308ZM311.936 7.54125C310.514 7.08549 309.069 6.65003 307.645 6.24409L307.997 5.00229C309.434 5.41192 310.891 5.85107 312.326 6.31052L311.936 7.54125ZM237.147 7.1999L236.73 5.97654C238.153 5.49126 239.604 5.02996 241.045 4.60373L241.409 5.84184C239.987 6.26439 238.552 6.72015 237.147 7.1999ZM303.317 5.08716C301.867 4.72551 300.399 4.38599 298.953 4.076L299.222 2.81205C300.682 3.12574 302.165 3.46894 303.628 3.83429L303.317 5.08716ZM245.727 4.66093L245.412 3.40805C246.867 3.04086 248.35 2.6995 249.822 2.39135L250.086 3.6553C248.63 3.95976 247.164 4.29927 245.727 4.66093ZM294.557 3.21246C293.089 2.95044 291.601 2.71241 290.135 2.50391L290.315 1.2252C291.796 1.43555 293.299 1.67542 294.782 1.94113L294.557 3.21246ZM254.483 2.82866L254.271 1.55549C255.75 1.30823 257.255 1.08681 258.747 0.898601L258.909 2.181C257.434 2.36737 255.945 2.5851 254.483 2.82866ZM285.691 1.95589C284.207 1.79905 282.705 1.66989 281.23 1.5684L281.318 0.280465C282.809 0.38195 284.326 0.514803 285.826 0.671644L285.691 1.95589ZM263.356 1.71048L263.246 0.42439C264.738 0.297072 266.256 0.195587 267.759 0.12547L267.818 1.41525C266.333 1.48352 264.832 1.58316 263.356 1.71048ZM276.763 1.34698C275.274 1.30085 273.773 1.28424 272.292 1.29532L272.283 0.00368818C273.78 -0.00738291 275.298 0.00922373 276.803 0.0553533L276.763 1.34698Z" fill="black"/>
<path d="M364.846 36.3298C364.266 35.8759 363.684 35.4256 363.104 34.9791L363.886 33.9532C364.472 34.4015 365.056 34.8536 365.64 35.3112L364.846 36.3298Z" fill="black"/>
<path d="M359.16 39.4777L367.921 38.0144L366.948 28.7516L359.16 39.4777Z" fill="black" stroke="black" stroke-width="7" stroke-miterlimit="10"/>
</g>
</g>
<defs>
<clipPath id="clip0">
<rect width="462" height="167" fill="white"/>
</clipPath>
</defs>
</svg>
